{
    "data": {
      "page": 1,
      "per_page": 1,
      "photos": [
        {
          "id": 102104,
          "width": 2827,
          "height": 2827,
          "url": "https://www.pexels.com/photo/red-and-orange-apple-fruit-102104/",
          "photographer": "mali maeder",
          "photographer_url": "https://www.pexels.com/@mali",
          "photographer_id": 7311,
          "avg_color": "#ECCEC4",
          "src": {
            "original": "https://images.pexels.com/photos/102104/pexels-photo-102104.jpeg",
            "large2x": "https://images.pexels.com/photos/102104/pexels-photo-102104.jpeg?auto=compress&cs=tinysrgb&dpr=2&h=650&w=940",
            "large": "https://images.pexels.com/photos/102104/pexels-photo-102104.jpeg?auto=compress&cs=tinysrgb&h=650&w=940",
            "medium": "https://images.pexels.com/photos/102104/pexels-photo-102104.jpeg?auto=compress&cs=tinysrgb&h=350",
            "small": "https://images.pexels.com/photos/102104/pexels-photo-102104.jpeg?auto=compress&cs=tinysrgb&h=130",
            "portrait": "https://images.pexels.com/photos/102104/pexels-photo-102104.jpeg?auto=compress&cs=tinysrgb&fit=crop&h=1200&w=800",
            "landscape": "https://images.pexels.com/photos/102104/pexels-photo-102104.jpeg?auto=compress&cs=tinysrgb&fit=crop&h=627&w=1200",
            "tiny": "https://images.pexels.com/photos/102104/pexels-photo-102104.jpeg?auto=compress&cs=tinysrgb&dpr=1&fit=crop&h=200&w=280"
          },
          "liked": false,
          "alt": "Red and Orange Apple Fruit"
        }
      ],
      "total_results": 56,
      "next_page": "https://api.pexels.com/v1/search/?orientation=square&page=2&per_page=1&query=apples"
    },
    "status": 200,
    "statusText": "",
    "headers": {
      "cache-control": "max-age=86400",
      "content-type": "application/json; charset=utf-8",
      "expires": "Tue, 31 Oct 2023 00:15:29 GMT"
    },
    "config": {
      "transitional": {
        "silentJSONParsing": true,
        "forcedJSONParsing": true,
        "clarifyTimeoutError": false
      },
      "adapter": [
        "xhr",
        "http"
      ],
      "transformRequest": [
        null
      ],
      "transformResponse": [
        null
      ],
      "timeout": 0,
      "xsrfCookieName": "XSRF-TOKEN",
      "xsrfHeaderName": "X-XSRF-TOKEN",
      "maxContentLength": -1,
      "maxBodyLength": -1,
      "env": {},
      "headers": {
        "Accept": "application/json, text/plain, */*",
        "Content-Type": null,
        "Authorization": "qDktUAbHWuQhSkwSmzjy4NRGEn0yPZv8kxTRdypzZqMn8Rc6NtRCDwmz"
      },
      "params": {
        "query": "apples",
        "per_page": 1,
        "orientation": "square"
      },
      "method": "get",
      "url": "https://api.pexels.com/v1/search?"
    },
    "request": {}
  }